projeto02/simulation/qsim/projeto02.msim.vcd
$comment
	File created using the following command:
		vcd file projeto02.msim.vcd -direction
$end
$date
	Wed Jan 11 14:07:11 2023
$end
$version
	ModelSim Version 2020.1
$end
$timescale
	1ps
$end

$scope module somadorCompleto_vlg_vec_tst $end
$var reg 1 ! a $end
$var reg 1 " b $end
$var reg 1 # cin $end
$var wire 1 $ cout $end
$var wire 1 % s $end

$scope module i1 $end
$var wire 1 & gnd $end
$var wire 1 ' vcc $end
$var wire 1 ( unknown $end
$var tri1 1 ) devclrn $end
$var tri1 1 * devpor $end
$var tri1 1 + devoe $end
$var wire 1 , s~output_o $end
$var wire 1 - cout~output_o $end
$var wire 1 . b~input_o $end
$var wire 1 / cin~input_o $end
$var wire 1 0 a~input_o $end
$var wire 1 1 u1~0_combout $end
$var wire 1 2 u4~0_combout $end
$upscope $end
$upscope $end
$enddefinitions $end
#0
$dumpvars
0!
0"
0#
0$
0%
0&
1'
x(
1)
1*
1+
0,
0-
0.
0/
00
01
02
$end
#5000
1#
1/
11
1,
1%
#10000
1"
0#
1.
0/
#15000
1#
1/
12
01
0,
1-
1$
0%
#20000
1!
0"
0#
10
0.
0/
02
11
1,
0-
0$
1%
#25000
1#
1/
12
01
0,
1-
1$
0%
#30000
1"
0#
1.
0/
#35000
1#
1/
11
1,
1%
#40000
0!
0"
0#
00
0.
0/
02
01
0,
0-
0$
0%
#45000
1#
1/
11
1,
1%
#50000
1"
0#
1.
0/
#55000
1#
1/
12
01
0,
1-
1$
0%
#60000
1!
0"
0#
10
0.
0/
02
11
1,
0-
0$
1%
#65000
1#
1/
12
01
0,
1-
1$
0%
#70000
1"
0#
1.
0/
#75000
1#
1/
11
1,
1%
#80000
0!
0"
0#
00
0.
0/
02
01
0,
0-
0$
0%
#85000
1#
1/
11
1,
1%
#90000
1"
0#
1.
0/
#95000
1#
1/
12
01
0,
1-
1$
0%
#100000
1!
0"
0#
10
0.
0/
02
11
1,
0-
0$
1%
#105000
1#
1/
12
01
0,
1-
1$
0%
#110000
1"
0#
1.
0/
#115000
1#
1/
11
1,
1%
#120000
0!
0"
0#
00
0.
0/
02
01
0,
0-
0$
0%
#125000
1#
1/
11
1,
1%
#130000
1"
0#
1.
0/
#135000
1#
1/
12
01
0,
1-
1$
0%
#140000
1!
0"
0#
10
0.
0/
02
11
1,
0-
0$
1%
#145000
1#
1/
12
01
0,
1-
1$
0%
#150000
1"
0#
1.
0/
#155000
1#
1/
11
1,
1%
#160000
0!
0"
0#
00
0.
0/
02
01
0,
0-
0$
0%
#165000
1#
1/
11
1,
1%
#170000
1"
0#
1.
0/
#175000
1#
1/
12
01
0,
1-
1$
0%
#180000
1!
0"
0#
10
0.
0/
02
11
1,
0-
0$
1%
#185000
1#
1/
12
01
0,
1-
1$
0%
#190000
1"
0#
1.
0/
#195000
1#
1/
11
1,
1%
#200000
0!
0"
0#
00
0.
0/
02
01
0,
0-
0$
0%
#205000
1#
1/
11
1,
1%
#210000
1"
0#
1.
0/
#215000
1#
1/
12
01
0,
1-
1$
0%
#220000
1!
0"
0#
10
0.
0/
02
11
1,
0-
0$
1%
#225000
1#
1/
12
01
0,
1-
1$
0%
#230000
1"
0#
1.
0/
#235000
1#
1/
11
1,
1%
#240000
0!
0"
0#
00
0.
0/
02
01
0,
0-
0$
0%
#245000
1#
1/
11
1,
1%
#250000
1"
0#
1.
0/
#255000
1#
1/
12
01
0,
1-
1$
0%
#260000
1!
0"
0#
10
0.
0/
02
11
1,
0-
0$
1%
#265000
1#
1/
12
01
0,
1-
1$
0%
#270000
1"
0#
1.
0/
#275000
1#
1/
11
1,
1%
#280000
0!
0"
0#
00
0.
0/
02
01
0,
0-
0$
0%
#285000
1#
1/
11
1,
1%
#290000
1"
0#
1.
0/
#295000
1#
1/
12
01
0,
1-
1$
0%
#300000
1!
0"
0#
10
0.
0/
02
11
1,
0-
0$
1%
#305000
1#
1/
12
01
0,
1-
1$
0%
#310000
1"
0#
1.
0/
#315000
1#
1/
11
1,
1%
#320000
0!
0"
0#
00
0.
0/
02
01
0,
0-
0$
0%
#325000
1#
1/
11
1,
1%
#330000
1"
0#
1.
0/
#335000
1#
1/
12
01
0,
1-
1$
0%
#340000
1!
0"
0#
10
0.
0/
02
11
1,
0-
0$
1%
#345000
1#
1/
12
01
0,
1-
1$
0%
#350000
1"
0#
1.
0/
#355000
1#
1/
11
1,
1%
#360000
0!
0"
0#
00
0.
0/
02
01
0,
0-
0$
0%
#365000
1#
1/
11
1,
1%
#370000
1"
0#
1.
0/
#375000
1#
1/
12
01
0,
1-
1$
0%
#380000
1!
0"
0#
10
0.
0/
02
11
1,
0-
0$
1%
#385000
1#
1/
12
01
0,
1-
1$
0%
#390000
1"
0#
1.
0/
#395000
1#
1/
11
1,
1%
#400000
0!
0"
0#
00
0.
0/
02
01
0,
0-
0$
0%
#405000
1#
1/
11
1,
1%
#410000
1"
0#
1.
0/
#415000
1#
1/
12
01
0,
1-
1$
0%
#420000
1!
0"
0#
10
0.
0/
02
11
1,
0-
0$
1%
#425000
1#
1/
12
01
0,
1-
1$
0%
#430000
1"
0#
1.
0/
#435000
1#
1/
11
1,
1%
#440000
0!
0"
0#
00
0.
0/
02
01
0,
0-
0$
0%
#445000
1#
1/
11
1,
1%
#450000
1"
0#
1.
0/
#455000
1#
1/
12
01
0,
1-
1$
0%
#460000
1!
0"
0#
10
0.
0/
02
11
1,
0-
0$
1%
#465000
1#
1/
12
01
0,
1-
1$
0%
#470000
1"
0#
1.
0/
#475000
1#
1/
11
1,
1%
#480000
0!
0"
0#
00
0.
0/
02
01
0,
0-
0$
0%
#485000
1#
1/
11
1,
1%
#490000
1"
0#
1.
0/
#495000
1#
1/
12
01
0,
1-
1$
0%
#500000
1!
0"
0#
10
0.
0/
02
11
1,
0-
0$
1%
#505000
1#
1/
12
01
0,
1-
1$
0%
#510000
1"
0#
1.
0/
#515000
1#
1/
11
1,
1%
#520000
0!
0"
0#
00
0.
0/
02
01
0,
0-
0$
0%
#525000
1#
1/
11
1,
1%
#530000
1"
0#
1.
0/
#535000
1#
1/
12
01
0,
1-
1$
0%
#540000
1!
0"
0#
10
0.
0/
02
11
1,
0-
0$
1%
#545000
1#
1/
12
01
0,
1-
1$
0%
#550000
1"
0#
1.
0/
#555000
1#
1/
11
1,
1%
#560000
0!
0"
0#
00
0.
0/
02
01
0,
0-
0$
0%
#565000
1#
1/
11
1,
1%
#570000
1"
0#
1.
0/
#575000
1#
1/
12
01
0,
1-
1$
0%
#580000
1!
0"
0#
10
0.
0/
02
11
1,
0-
0$
1%
#585000
1#
1/
12
01
0,
1-
1$
0%
#590000
1"
0#
1.
0/
#595000
1#
1/
11
1,
1%
#600000
0!
0"
0#
00
0.
0/
02
01
0,
0-
0$
0%
#605000
1#
1/
11
1,
1%
#610000
1"
0#
1.
0/
#615000
1#
1/
12
01
0,
1-
1$
0%
#620000
1!
0"
0#
10
0.
0/
02
11
1,
0-
0$
1%
#625000
1#
1/
12
01
0,
1-
1$
0%
#630000
1"
0#
1.
0/
#635000
1#
1/
11
1,
1%
#640000
0!
0"
0#
00
0.
0/
02
01
0,
0-
0$
0%
#645000
1#
1/
11
1,
1%
#650000
1"
0#
1.
0/
#655000
1#
1/
12
01
0,
1-
1$
0%
#660000
1!
0"
0#
10
0.
0/
02
11
1,
0-
0$
1%
#665000
1#
1/
12
01
0,
1-
1$
0%
#670000
1"
0#
1.
0/
#675000
1#
1/
11
1,
1%
#680000
0!
0"
0#
00
0.
0/
02
01
0,
0-
0$
0%
#685000
1#
1/
11
1,
1%
#690000
1"
0#
1.
0/
#695000
1#
1/
12
01
0,
1-
1$
0%
#700000
1!
0"
0#
10
0.
0/
02
11
1,
0-
0$
1%
#705000
1#
1/
12
01
0,
1-
1$
0%
#710000
1"
0#
1.
0/
#715000
1#
1/
11
1,
1%
#720000
0!
0"
0#
00
0.
0/
02
01
0,
0-
0$
0%
#725000
1#
1/
11
1,
1%
#730000
1"
0#
1.
0/
#735000
1#
1/
12
01
0,
1-
1$
0%
#740000
1!
0"
0#
10
0.
0/
02
11
1,
0-
0$
1%
#745000
1#
1/
12
01
0,
1-
1$
0%
#750000
1"
0#
1.
0/
#755000
1#
1/
11
1,
1%
#760000
0!
0"
0#
00
0.
0/
02
01
0,
0-
0$
0%
#765000
1#
1/
11
1,
1%
#770000
1"
0#
1.
0/
#775000
1#
1/
12
01
0,
1-
1$
0%
#780000
1!
0"
0#
10
0.
0/
02
11
1,
0-
0$
1%
#785000
1#
1/
12
01
0,
1-
1$
0%
#790000
1"
0#
1.
0/
#795000
1#
1/
11
1,
1%
#800000
0!
0"
0#
00
0.
0/
02
01
0,
0-
0$
0%
#805000
1#
1/
11
1,
1%
#810000
1"
0#
1.
0/
#815000
1#
1/
12
01
0,
1-
1$
0%
#820000
1!
0"
0#
10
0.
0/
02
11
1,
0-
0$
1%
#825000
1#
1/
12
01
0,
1-
1$
0%
#830000
1"
0#
1.
0/
#835000
1#
1/
11
1,
1%
#840000
0!
0"
0#
00
0.
0/
02
01
0,
0-
0$
0%
#845000
1#
1/
11
1,
1%
#850000
1"
0#
1.
0/
#855000
1#
1/
12
01
0,
1-
1$
0%
#860000
1!
0"
0#
10
0.
0/
02
11
1,
0-
0$
1%
#865000
1#
1/
12
01
0,
1-
1$
0%
#870000
1"
0#
1.
0/
#875000
1#
1/
11
1,
1%
#880000
0!
0"
0#
00
0.
0/
02
01
0,
0-
0$
0%
#885000
1#
1/
11
1,
1%
#890000
1"
0#
1.
0/
#895000
1#
1/
12
01
0,
1-
1$
0%
#900000
1!
0"
0#
10
0.
0/
02
11
1,
0-
0$
1%
#905000
1#
1/
12
01
0,
1-
1$
0%
#910000
1"
0#
1.
0/
#915000
1#
1/
11
1,
1%
#920000
0!
0"
0#
00
0.
0/
02
01
0,
0-
0$
0%
#925000
1#
1/
11
1,
1%
#930000
1"
0#
1.
0/
#935000
1#
1/
12
01
0,
1-
1$
0%
#940000
1!
0"
0#
10
0.
0/
02
11
1,
0-
0$
1%
#945000
1#
1/
12
01
0,
1-
1$
0%
#950000
1"
0#
1.
0/
#955000
1#
1/
11
1,
1%
#960000
0!
0"
0#
00
0.
0/
02
01
0,
0-
0$
0%
#965000
1#
1/
11
1,
1%
#970000
1"
0#
1.
0/
#975000
1#
1/
12
01
0,
1-
1$
0%
#980000
1!
0"
0#
10
0.
0/
02
11
1,
0-
0$
1%
#985000
1#
1/
12
01
0,
1-
1$
0%
#990000
1"
0#
1.
0/
#995000
1#
1/
11
1,
1%
